<svg xmlns="http://www.w3.org/2000/svg" width="43" height="20" viewBox="0 0 43 20">
  <text id="POS" transform="translate(0 15)" fill="#1cbe20" font-size="20" font-family="Helvetica-Bold, Helvetica" font-weight="700"><tspan x="0" y="0">POS</tspan></text>
</svg>
